<svg width="30" height="30" viewBox="0 0 30 30" fill="none" xmlns="http://www.w3.org/2000/svg">
<path d="M27.8234 7.29821H18.549L21.8423 1.89464C22.1278 1.42617 21.9795 0.814912 21.511 0.529416C21.0426 0.243787 20.4313 0.392197 20.1458 0.860673L16.2224 7.29821H13.7777L9.85428 0.860673C9.56879 0.39233 8.95753 0.243986 8.48905 0.529416C8.02058 0.814978 7.87223 1.42617 8.1578 1.89464L11.451 7.29821H2.17649C0.976356 7.29821 0 8.27456 0 9.47463V27.4396C0 28.6396 0.976356 29.616 2.17649 29.616H27.8235C29.0236 29.616 30 28.6396 30 27.4396V9.47463C29.9999 8.27456 29.0236 7.29821 27.8234 7.29821ZM21.0382 24.8286C21.0382 25.4819 20.5085 26.0117 19.8551 26.0117H4.71443C4.06105 26.0116 3.53138 25.4819 3.53138 24.8286V12.0857C3.53138 11.4323 4.06105 10.9026 4.71449 10.9026H19.8551C20.5084 10.9026 21.0382 11.4323 21.0382 12.0857V24.8286ZM25.4166 24.4505C24.2846 24.4505 23.3637 23.5295 23.3637 22.3975C23.3637 21.2655 24.2846 20.3445 25.4166 20.3445C26.5486 20.3445 27.4696 21.2655 27.4696 22.3975C27.4696 23.5296 26.5486 24.4505 25.4166 24.4505ZM25.4166 16.5697C24.2846 16.5697 23.3637 15.6488 23.3637 14.5167C23.3637 13.3847 24.2846 12.4638 25.4166 12.4638C26.5486 12.4638 27.4696 13.3847 27.4696 14.5167C27.4696 15.6488 26.5486 16.5697 25.4166 16.5697Z" fill="white"/>
</svg>
